5k vs 500 Dataset Comparison
…
Top Skills by Dataset

top_skills_by_dataset <- combined_processed |>
  select(dataset, skills_compare) |>
  unnest(skills_compare) |>
  filter(!is.na(skills_compare), skills_compare != "") |>
  count(dataset, skills_compare, sort = TRUE) |>
  group_by(dataset) |>
  slice_max(order_by = n, n = 15, with_ties = FALSE) |>
  ungroup()

top_skills_by_dataset

## # A tibble: 30 × 3
##    dataset     skills_compare         n
##    <chr>       <chr>              <int>
##  1 500 dataset leadership           118
##  2 500 dataset microsoft excel      101
##  3 500 dataset project management    82
##  4 500 dataset microsoft office      77
##  5 500 dataset management            71
##  6 500 dataset strategic planning    69
##  7 500 dataset customer service      67
##  8 500 dataset communication         60
##  9 500 dataset public speaking       59
## 10 500 dataset financial analysis    52
## # ℹ 20 more rows
…
